<svg width="51" height="46" viewBox="0 0 51 46" fill="none" xmlns="http://www.w3.org/2000/svg">
<g clip-path="url(#clip0)">
<path d="M22.1001 15.7692H17.9688L20.5528 0.280762H24.6839L22.1001 15.7692Z" fill="#00579F"/>
<path d="M37.0765 0.659404C36.2616 0.346017 34.9692 0 33.371 0C29.2912 0 26.4182 2.10895 26.4006 5.12412C26.3667 7.3487 28.4575 8.58429 30.0213 9.32603C31.6197 10.084 32.1631 10.5787 32.1631 11.2543C32.1468 12.2919 30.8715 12.7702 29.682 12.7702C28.0326 12.7702 27.1488 12.5236 25.8057 11.9463L25.2617 11.6989L24.6836 15.1757C25.6526 15.6036 27.4378 15.9834 29.2912 16C33.6261 16 36.4483 13.9237 36.4817 10.7105C36.4982 8.94739 35.3941 7.59639 33.0139 6.49242C31.5689 5.78374 30.684 5.30589 30.684 4.58078C30.7009 3.9216 31.4324 3.24643 33.0636 3.24643C34.4066 3.21336 35.3934 3.52631 36.141 3.83947L36.5147 4.00394L37.0765 0.659404Z" fill="#00579F"/>
<path d="M42.5677 10.2822C42.9079 9.39239 44.2171 5.94865 44.2171 5.94865C44.1999 5.98172 44.5566 5.04244 44.7607 4.46581L45.0494 5.80039C45.0494 5.80039 45.8317 9.50781 46.0016 10.2822C45.3559 10.2822 43.3837 10.2822 42.5677 10.2822ZM47.6673 0.280762H44.4717C43.4863 0.280762 42.7376 0.560641 42.3124 1.56584L36.1758 15.769H40.5107C40.5107 15.769 41.2244 13.8573 41.3778 13.4456C41.8533 13.4456 46.0703 13.4456 46.6821 13.4456C46.8007 13.9894 47.175 15.769 47.175 15.769H51.0003L47.6673 0.280762Z" fill="#00579F"/>
<path d="M14.5183 0.280762L10.4724 10.8424L10.0302 8.70036C9.28222 6.22875 6.93629 3.5434 4.31836 2.20816L8.02431 15.7528H12.3931L18.8869 0.280762H14.5183Z" fill="#00579F"/>
<path d="M6.71495 0.280762H0.0680009L0 0.59371C5.18504 1.87901 8.61899 4.97717 10.0298 8.70101L8.58487 1.5827C8.34698 0.593491 7.61591 0.313392 6.71495 0.280762Z" fill="#FAA61A"/>
</g>
<path d="M30.0919 26.2278H20.9238V42.7462H30.0919V26.2278Z" fill="#FF5F00"/>
<path d="M21.4766 34.5265C21.4766 31.2861 22.9783 28.2827 25.5074 26.2278C20.9234 22.6712 14.3634 23.4616 10.7278 27.9666C7.1712 32.5506 7.96157 39.1106 12.4666 42.7462C16.2603 45.7495 21.6347 45.7495 25.4284 42.7462C22.9783 40.7703 21.4766 37.767 21.4766 34.5265Z" fill="#EB001B"/>
<path d="M42.5004 34.5264C42.5004 40.296 37.8373 45.0381 31.9887 45.0381C29.6177 45.0381 27.3256 44.2477 25.5078 42.8251C30.0919 39.2685 30.8822 32.6296 27.2466 28.1245C26.6934 27.4923 26.1401 26.86 25.5078 26.3858C30.0919 22.8292 36.6518 23.6195 40.2084 28.1245C41.71 29.8633 42.5004 32.1553 42.5004 34.5264Z" fill="#F79E1B"/>
<defs>
<clipPath id="clip0">
<rect width="51" height="16" fill="white"/>
</clipPath>
</defs>
</svg>
