<svg width="24" height="24" viewBox="0 0 24 24" fill="none" xmlns="http://www.w3.org/2000/svg">
<g clip-path="url(#clip0)">
<path d="M20.9301 2.322C20.3379 1.79215 17.9691 0.0467682 12.6395 0.0156006C12.6395 0.0156006 6.37478 -0.358415 3.32035 2.44667C1.60613 4.16089 1.01395 6.62314 0.95161 9.70873C0.889275 12.7943 0.79578 18.5603 6.37478 20.1499V22.5498C6.37478 22.5498 6.34362 23.516 6.96697 23.703C7.74616 23.9523 8.1825 23.2043 8.93052 22.4251C9.3357 21.9888 9.89672 21.3654 10.3019 20.8667C14.1043 21.1784 17.0341 20.4616 17.377 20.3369C18.1561 20.0875 22.4884 19.5265 23.2053 13.7605C23.9533 7.77634 22.8936 4.00505 20.9301 2.322ZM21.5846 13.293C20.9924 18.124 17.4705 18.4357 16.8159 18.6227C16.5354 18.7162 13.9797 19.3395 10.7383 19.1525C10.7383 19.1525 8.33834 22.0511 7.55915 22.8303C7.43448 22.955 7.30981 22.9861 7.2163 22.9861C7.09163 22.955 7.06047 22.7991 7.06047 22.581C7.06047 22.2693 7.09164 18.5915 7.09164 18.5915C2.38532 17.2825 2.66583 12.358 2.697 9.77106C2.75933 7.18415 3.22685 5.09592 4.66056 3.66221C7.24748 1.32464 12.5771 1.66748 12.5771 1.66748C17.0653 1.69865 19.2158 3.03885 19.7145 3.50637C21.3352 4.94008 22.1768 8.33736 21.5846 13.293Z" fill="#433623"/>
<path d="M14.8215 9.584C14.7591 8.39958 14.1669 7.7762 13.0137 7.71387" stroke="#433623" stroke-width="0.6006" stroke-linecap="round" stroke-linejoin="round"/>
<path d="M16.3796 10.0834C16.4107 8.99245 16.0679 8.05739 15.4133 7.3405C14.7276 6.59245 13.7926 6.18726 12.6082 6.09375" stroke="#433623" stroke-width="0.6006" stroke-linecap="round" stroke-linejoin="round"/>
<path d="M17.9379 10.7067C17.9379 8.80536 17.3457 7.30926 16.2237 6.21835C15.1016 5.12744 13.699 4.56641 12.0159 4.56641" stroke="#433623" stroke-width="0.6006" stroke-linecap="round" stroke-linejoin="round"/>
<path d="M13.0759 13.6047C13.0759 13.6047 13.5122 13.6359 13.7304 13.3554L14.1667 12.7943C14.3849 12.5138 14.8836 12.3268 15.4134 12.6073C15.694 12.7632 16.1926 13.0748 16.5043 13.3242C16.8472 13.5735 17.5328 14.1345 17.5328 14.1345C17.8757 14.4151 17.938 14.8202 17.7198 15.2566C17.5017 15.6618 17.19 16.0358 16.7848 16.3786C16.4731 16.6591 16.1615 16.7838 15.8498 16.8461H15.7251C15.6004 16.8461 15.4446 16.815 15.3199 16.7838C14.8524 16.6591 14.0732 16.3163 12.733 15.5994C11.8915 15.1319 11.1746 14.6332 10.5825 14.1657C10.2708 13.9164 9.92794 13.6359 9.61626 13.293L9.49159 13.1683C9.14875 12.8255 8.86824 12.5138 8.61889 12.2022C8.15138 11.61 7.6527 10.8931 7.18518 10.0516C6.46833 8.74255 6.12549 7.96336 6.00082 7.46468C5.96965 7.34001 5.93848 7.21534 5.93848 7.0595V6.93482C5.96964 6.62315 6.12548 6.31147 6.40599 5.9998C6.74883 5.62578 7.12285 5.31411 7.52803 5.06477C7.96437 4.84659 8.36955 4.90893 8.65006 5.25177C8.65006 5.25177 9.21108 5.93747 9.46042 6.28031C9.6786 6.59199 9.99027 7.09067 10.1773 7.37118C10.4578 7.86986 10.2708 8.39971 10.0214 8.61788L9.46042 9.05423C9.17992 9.2724 9.21108 9.70875 9.21108 9.70875C9.21108 9.70875 9.99028 12.7943 13.0759 13.6047Z" fill="#433623"/>
</g>
<defs>
<clipPath id="clip0">
<rect width="24" height="24" fill="white"/>
</clipPath>
</defs>
</svg>
