<svg width="49" height="49" viewBox="0 0 49 49" fill="none" xmlns="http://www.w3.org/2000/svg">
<g clip-path="url(#clip0)">
<path d="M4.44792 15.1903C2.51481 16.2159 1.75335 18.5595 2.71439 20.5256L4.44042 24.0567C4.62663 24.4377 4.62663 24.8746 4.44042 25.2555L2.7143 28.7866C1.75326 30.7527 2.51472 33.0961 4.44783 34.1218L7.91977 35.9639C8.29435 36.1626 8.55115 36.5162 8.62446 36.9337L9.30348 40.8051C9.64769 42.7673 11.3302 44.1435 13.264 44.1433C13.4544 44.1433 13.6477 44.1299 13.8419 44.1024L17.7336 43.5519C18.1533 43.4924 18.5689 43.6277 18.8737 43.9225L21.6985 46.6552C22.4851 47.4161 23.494 47.7965 24.5033 47.7964C25.5124 47.7963 26.522 47.4159 27.3082 46.6552L30.1331 43.9225C30.4379 43.6277 30.8533 43.493 31.2732 43.5519L35.1648 44.1024C37.3322 44.409 39.3251 42.9605 39.7032 40.805L40.3823 36.9338C40.4556 36.5162 40.7124 36.1627 41.0869 35.9639L44.5589 34.1218C46.492 33.0962 47.2534 30.7526 46.2924 28.7865L44.5663 25.2553C44.3801 24.8743 44.3801 24.4374 44.5663 24.0565L46.2924 20.5253C47.2534 18.5592 46.492 16.2158 44.5589 15.1902L41.0869 13.348C40.7123 13.1493 40.4555 12.7957 40.3822 12.3782L39.7032 8.50679C39.3251 6.35132 37.3312 4.90288 35.1648 5.2094L31.2732 5.75988C30.8532 5.81918 30.4378 5.68414 30.1331 5.38937L27.3083 2.65665C25.7354 1.135 23.2713 1.13491 21.6985 2.65665L18.8736 5.38964C18.5688 5.6845 18.1534 5.81927 17.7335 5.76016L13.8419 5.20967C11.6747 4.90297 9.68159 6.35159 9.30348 8.50706L8.96397 10.4427" stroke="#876B46" stroke-width="2" stroke-linejoin="round"/>
<circle cx="29.2982" cy="30.2283" r="2.85675" stroke="#876B46" stroke-width="2"/>
<circle cx="19.012" cy="19.9405" r="2.85675" stroke="#876B46" stroke-width="2"/>
<path d="M31.4396 17.7979L19.8583 29.3791M16.8696 32.3678L18.1538 31.0836" stroke="#876B46" stroke-width="2" stroke-linejoin="round"/>
</g>
<defs>
<clipPath id="clip0">
<rect width="47.9951" height="47.9951" fill="white" transform="translate(0.584961 0.658203)"/>
</clipPath>
</defs>
</svg>
