<svg width="49" height="49" viewBox="0 0 49 49" fill="none" xmlns="http://www.w3.org/2000/svg">
<g clip-path="url(#clip0)">
<path d="M42.1326 13.6702C43.849 14.5819 44.525 16.6653 43.6717 18.4131L42.1393 21.5522C41.9739 21.8909 41.9739 22.2793 42.1393 22.6179L43.6718 25.757C44.5251 27.5048 43.849 29.588 42.1327 30.4998L39.0501 32.1375C38.7175 32.3141 38.4895 32.6285 38.4244 32.9996L37.8215 36.4412C37.5159 38.1856 36.022 39.4089 34.3051 39.4088C34.136 39.4088 33.9644 39.3969 33.7919 39.3724L30.3367 38.8831C29.964 38.8301 29.595 38.9504 29.3244 39.2125L26.8163 41.6418C26.1179 42.3182 25.2221 42.6564 24.326 42.6563C23.4301 42.6562 22.5337 42.3181 21.8357 41.6418L19.3275 39.2125C19.0569 38.9504 18.688 38.8307 18.3152 38.8831L14.86 39.3724C12.9356 39.645 11.1662 38.3573 10.8305 36.4411L10.2275 32.9997C10.1624 32.6285 9.93444 32.3142 9.60194 32.1375L6.51931 30.4998C4.80296 29.5881 4.12688 27.5047 4.98016 25.7569L6.51273 22.6178C6.67806 22.2791 6.67806 21.8906 6.51273 21.552L4.98016 18.4129C4.12688 16.6651 4.80296 14.5818 6.51931 13.67L9.60194 12.0324C9.93452 11.8557 10.1625 11.5414 10.2276 11.1702L10.8305 7.72865C11.1662 5.81248 12.9365 4.52485 14.86 4.79734L18.3152 5.2867C18.6882 5.33942 19.057 5.21937 19.3275 4.95732L21.8356 2.528C23.2321 1.17528 25.4199 1.1752 26.8163 2.528L29.3245 4.95757C29.5951 5.21969 29.9639 5.3395 30.3368 5.28695L33.792 4.79758C35.7161 4.52493 37.4858 5.81272 37.8215 7.72889L38.1229 9.4496" stroke="#876B46" stroke-width="2" stroke-linecap="round" stroke-linejoin="round"/>
<path d="M34.0706 40.0001L35.5027 45.0949L29.9273 44.4299L25.4313 47.7935L24.0706 43.0002" stroke="#876B46" stroke-width="2" stroke-linecap="round" stroke-linejoin="round"/>
<path d="M23.0703 43.0001L21.7735 47.7969L17.2775 44.4333L11.7021 45.0983L13.0703 40" stroke="#876B46" stroke-width="2" stroke-linecap="round" stroke-linejoin="round"/>
<path d="M16.6121 23.7947L22.6121 29.7947L34.6121 17.7947" stroke="#876B46" stroke-width="2" stroke-linecap="round" stroke-linejoin="round"/>
</g>
<defs>
<clipPath id="clip0">
<rect width="48" height="48" fill="white" transform="translate(0.32666 0.65332)"/>
</clipPath>
</defs>
</svg>
