<svg width="25" height="24" viewBox="0 0 25 24" fill="none" xmlns="http://www.w3.org/2000/svg">
<path fill-rule="evenodd" clip-rule="evenodd" d="M12.3141 17.1C9.58825 17.1 6.72362 15.4953 4.38565 12C6.72362 8.5047 9.58825 6.89998 12.3141 6.89998C15.0399 6.89997 17.9045 8.50469 20.2425 12C17.9045 15.4953 15.0399 17.1 12.3141 17.1ZM22.0773 11.523C19.4689 7.34952 15.9672 5.09998 12.3141 5.09998C8.66096 5.09998 5.15927 7.34953 2.55086 11.523C2.36846 11.8148 2.36846 12.1851 2.55086 12.477C5.15927 16.6504 8.66096 18.9 12.3141 18.9C15.9672 18.9 19.4689 16.6504 22.0773 12.477C22.2597 12.1851 22.2597 11.8148 22.0773 11.523ZM12.314 16C14.5232 16 16.314 14.2091 16.314 12C16.314 9.79084 14.5232 7.99998 12.314 7.99998C10.1049 7.99998 8.31403 9.79084 8.31403 12C8.31403 14.2091 10.1049 16 12.314 16Z" fill="#876B46"/>
</svg>
