<svg width="49" height="49" viewBox="0 0 49 49" fill="none" xmlns="http://www.w3.org/2000/svg">
<path d="M39.0709 10.3521H46.7853V44.6385H2.21289V10.3521H9.78444M31.4992 10.3521H16.7846" stroke="#876B46" stroke-width="2"/>
<path d="M2.21289 14.6333H7.78444M46.7853 14.6333H41.2138M30.4992 14.6333H18.9275" stroke="#876B46" stroke-width="2" stroke-linejoin="round"/>
<path d="M16.786 13.35V5.20703H9.92871V17.2073H16.786V12.9215" stroke="#876B46" stroke-width="2"/>
<path d="M39.0692 13.35V5.20703H32.2119V17.2073H39.0692V12.9215" stroke="#876B46" stroke-width="2"/>
<rect x="9.24023" y="35.2681" width="13" height="2" fill="#876B46"/>
<rect x="26.2402" y="35.2681" width="13" height="2" fill="#876B46"/>
<rect x="9.24023" y="27.2681" width="13" height="2" fill="#876B46"/>
<rect x="26.2402" y="27.2681" width="13" height="2" fill="#876B46"/>
</svg>
