<svg width="24" height="25" viewBox="0 0 24 25" fill="none" xmlns="http://www.w3.org/2000/svg">
<path d="M7 10.6813V13.348C7 16.3251 7 17.8137 7.97101 18.3963C8.94202 18.9789 10.2555 18.2784 12.8824 16.8774L15.3824 15.5441C18.2941 13.9911 19.75 13.2146 19.75 12.0146C19.75 10.8146 18.2941 10.0382 15.3824 8.48524L12.8824 7.1519C10.2555 5.75089 8.94202 5.05039 7.97101 5.633C7 6.2156 7 7.70417 7 10.6813Z" stroke="#876B46"/>
</svg>
