<svg width="40" height="40" viewBox="0 0 40 40" fill="none" xmlns="http://www.w3.org/2000/svg">
<path d="M36.634 13.1333C36.5559 11.3622 36.2695 10.1446 35.8592 9.08948C35.436 7.96952 34.7848 6.96682 33.9317 6.13328C33.0981 5.28676 32.0888 4.62898 30.9818 4.21233C29.9206 3.80204 28.7094 3.51563 26.9382 3.43754C25.1539 3.35284 24.5874 3.33325 20.0618 3.33325C15.5362 3.33325 14.9697 3.35284 13.192 3.43093C11.4209 3.50902 10.2032 3.79568 9.14838 4.20572C8.02817 4.62898 7.02547 5.28014 6.19193 6.13328C5.34541 6.96682 4.68788 7.97614 4.27098 9.08312C3.8607 10.1446 3.57428 11.3556 3.4962 13.1267C3.41149 14.9111 3.39191 15.4775 3.39191 20.0032C3.39191 24.5288 3.41149 25.0953 3.48958 26.873C3.56767 28.6441 3.85434 29.8618 4.26462 30.9169C4.68788 32.0368 5.34541 33.0395 6.19193 33.8731C7.02547 34.7196 8.03478 35.3774 9.14177 35.794C10.2032 36.2043 11.4142 36.4907 13.1856 36.5688C14.9631 36.6471 15.5298 36.6665 20.0554 36.6665C24.5811 36.6665 25.1475 36.6471 26.9253 36.5688C28.6964 36.4907 29.914 36.2043 30.9689 35.794C33.209 34.9279 34.9802 33.1568 35.8463 30.9169C36.2563 29.8554 36.543 28.6441 36.6211 26.873C36.6991 25.0953 36.7187 24.5288 36.7187 20.0032C36.7187 15.4775 36.7121 14.9111 36.634 13.1333ZM33.6323 26.7428C33.5606 28.3707 33.2871 29.2498 33.0592 29.8358C32.4991 31.288 31.3466 32.4405 29.8944 33.0006C29.3084 33.2285 28.423 33.502 26.8014 33.5734C25.0432 33.6518 24.5159 33.6711 20.0684 33.6711C15.6209 33.6711 15.087 33.6518 13.3352 33.5734C11.7073 33.502 10.8282 33.2285 10.2421 33.0006C9.5195 32.7335 8.86172 32.3103 8.32781 31.7568C7.77432 31.2162 7.35106 30.5651 7.08398 29.8424C6.85607 29.2564 6.58263 28.3707 6.51115 26.7494C6.43281 24.9912 6.41348 24.4637 6.41348 20.0161C6.41348 15.5686 6.43281 15.0347 6.51115 13.2832C6.58263 11.6552 6.85607 10.7762 7.08398 10.1901C7.35106 9.46721 7.77432 8.80968 8.33442 8.27552C8.87469 7.72203 9.52586 7.29877 10.2488 7.03194C10.8348 6.80403 11.7205 6.53059 13.3418 6.45886C15.1 6.38077 15.6275 6.36119 20.0748 6.36119C24.5289 6.36119 25.0562 6.38077 26.808 6.45886C28.4359 6.53059 29.315 6.80403 29.9011 7.03194C30.6237 7.29877 31.2815 7.72203 31.8154 8.27552C32.3689 8.81604 32.7921 9.46721 33.0592 10.1901C33.2871 10.7762 33.5606 11.6616 33.6323 13.2832C33.7104 15.0413 33.73 15.5686 33.73 20.0161C33.73 24.4637 33.7104 24.9846 33.6323 26.7428Z" fill="#876B46"/>
<path d="M20.0618 11.4403C15.3345 11.4403 11.4989 15.2756 11.4989 20.0032C11.4989 24.7308 15.3345 28.5661 20.0618 28.5661C24.7894 28.5661 28.6247 24.7308 28.6247 20.0032C28.6247 15.2756 24.7894 11.4403 20.0618 11.4403ZM20.0618 25.5577C16.9949 25.5577 14.5073 23.0703 14.5073 20.0032C14.5073 16.9361 16.9949 14.4487 20.0618 14.4487C23.1289 14.4487 25.6163 16.9361 25.6163 20.0032C25.6163 23.0703 23.1289 25.5577 20.0618 25.5577Z" fill="#876B46"/>
<path d="M30.9626 11.1018C30.9626 12.2057 30.0675 13.1008 28.9633 13.1008C27.8593 13.1008 26.9642 12.2057 26.9642 11.1018C26.9642 9.99756 27.8593 9.10271 28.9633 9.10271C30.0675 9.10271 30.9626 9.99756 30.9626 11.1018Z" fill="#876B46"/>
</svg>
