<svg width="21" height="39" viewBox="0 0 21 39" fill="none" xmlns="http://www.w3.org/2000/svg">
<path fill-rule="evenodd" clip-rule="evenodd" d="M0.634644 0.766944C3.5189 3.25733 7.75538 7.35885 10.7013 10.2933C13.4293 12.9135 16.6226 16.1092 19.4004 18.8892C19.5887 19.0775 19.775 19.264 19.9591 19.4482C18.7426 20.6651 17.1507 22.2411 15.506 23.8695C13.7422 25.6157 11.9176 27.4222 10.4298 28.9105C9.69255 29.6131 8.92677 30.347 8.1439 31.0972C5.66123 33.4763 3.00675 36.02 0.546616 38.2549C0.703737 38.498 0.727417 38.5003 0.97777 38.5251C1.0268 38.5299 1.08452 38.5356 1.15365 38.5441C1.42386 38.2738 1.69918 37.9983 1.9787 37.7186C4.75654 34.9386 7.94991 31.7428 10.6779 29.1227C13.6238 26.1882 17.8603 22.0867 20.7446 19.5963C20.7387 19.5889 20.7331 19.5817 20.7276 19.5747C20.7576 19.539 20.7903 19.491 20.8326 19.4255C18.3724 17.1907 15.718 14.6469 13.2353 12.2678C12.4524 11.5176 11.6866 10.7838 10.9494 10.0812C9.46154 8.59279 7.63691 6.7863 5.87313 5.04006C4.13338 3.3176 2.45282 1.65376 1.21304 0.411621C0.864651 0.469279 0.852201 0.485427 0.697731 0.685806C0.679058 0.710027 0.65831 0.73694 0.634644 0.766944Z" fill="black"/>
</svg>
