<svg width="16" height="17" viewBox="0 0 16 17" fill="none" xmlns="http://www.w3.org/2000/svg">
<g clip-path="url(#clip0)">
<path d="M7.31191 1.60145C7.57303 0.999288 8.42697 0.999288 8.68809 1.60145L10.1321 4.9314C10.2408 5.18202 10.4771 5.35373 10.749 5.37964L14.3622 5.72394C15.0156 5.7862 15.2795 6.59835 14.7875 7.03277L12.0667 9.43509C11.8619 9.61589 11.7717 9.89372 11.8311 10.1604L12.6202 13.7031C12.7628 14.3437 12.072 14.8457 11.5068 14.512L8.38129 12.6668C8.14607 12.5279 7.85393 12.5279 7.61871 12.6668L4.4932 14.512C3.92801 14.8457 3.23715 14.3437 3.37984 13.7031L4.16894 10.1604C4.22832 9.89372 4.13805 9.61589 3.93328 9.43509L1.21252 7.03277C0.720525 6.59835 0.984409 5.7862 1.63779 5.72394L5.25098 5.37964C5.52291 5.35373 5.75925 5.18202 5.86793 4.9314L7.31191 1.60145Z" fill="#876B46"/>
</g>
<defs>
<clipPath id="clip0">
<rect width="16" height="16" fill="white" transform="translate(0 0.0146484)"/>
</clipPath>
</defs>
</svg>
