<svg width="25" height="24" viewBox="0 0 25 24" fill="none" xmlns="http://www.w3.org/2000/svg">
<path fill-rule="evenodd" clip-rule="evenodd" d="M12.4846 15.3462C8.61694 15.3462 5.31409 15.931 5.31409 18.2729C5.31409 20.6148 8.59599 21.2205 12.4846 21.2205C16.3522 21.2205 19.6541 20.6348 19.6541 18.2938C19.6541 15.9529 16.3731 15.3462 12.4846 15.3462Z" stroke="#876B46" stroke-width="2" stroke-linecap="round" stroke-linejoin="round"/>
<path opacity="0.4" fill-rule="evenodd" clip-rule="evenodd" d="M12.4848 12.0059C15.0229 12.0059 17.08 9.94779 17.08 7.40969C17.08 4.8716 15.0229 2.81445 12.4848 2.81445C9.94667 2.81445 7.88858 4.8716 7.88858 7.40969C7.88001 9.93921 9.92381 11.9973 12.4524 12.0059H12.4848Z" stroke="#876B46" stroke-width="2" stroke-linecap="round" stroke-linejoin="round"/>
</svg>
